Projet
…
dfr %>% 
  select(`Incident Area`) %>% 
  group_by(`Incident Area`) %>% 
  summarise(nb = n()) %>% 
  arrange(-nb)

## # A tibble: 175 x 2
##    `Incident Area`      nb
##    <chr>             <int>
##  1 <NA>                 60
##  2 Home                 42
##  3 Workplace             8
##  4 Home+School           7
##  5 Church                5
##  6 Club                  4
##  7 street                4
##  8 School                3
##  9 Shopping Mall         3
## 10 Apartment Complex     2
## #  with 165 more rows

dfr %>% 
  select(Target) %>%
  group_by(Target) %>% 
  summarise(nb = n()) %>% 
  arrange(-nb)

## # A tibble: 55 x 2
##    Target               nb
##    <chr>             <int>
##  1 random              137
##  2 Family               36
##  3 Coworkers            17
##  4 Students             16
##  5 Students+Teachers    14
##  6 Ex-Coworkers          9
##  7 party guests          7
##  8 Ex-Wife               6
##  9 coworkers             5
## 10 Policeman             5
## #  with 45 more rows

dfr %>% 
  select(`Weapon Type`) %>% 
  group_by(`Weapon Type`) %>% 
  summarise(nb = n()) %>% 
  arrange(-nb)

## # A tibble: 26 x 2
##    `Weapon Type`                                            nb
##    <chr>                                                 <int>
##  1 Unknown                                                 199
##  2 Semi-automatic Handgun                                   31
##  3 Handgun                                                  21
##  4 Semi-automatic Rifle                                     11
##  5 Semi-automatic Rifle, Semi-automatic Handgun             10
##  6 Semi-automatic Handgun, Handgun                           6
##  7 Semi-automatic Rifle, Semi-automatic Handgun, Shotgun     6
##  8 Shotgun                                                   5
##  9 Handgun, Shotgun                                          4
## 10 Semi-automatic Handgun, Shotgun                           3
## #  with 16 more rows
…
